Méthodologie et usages des fonctions • vizsurvey
…
Cette fonction guide l’analyse de {vizsurvey} dans le choix des
indicateurs pour chaque variable. Vous pouvez laisser la fonction
décider seule de la catégorie de vos variables, ou forcer vous mêmes la
catégorie de certaines variables avec le config.txt (voir
vignette 2).

classify_df(eusilc)
#> # A tibble: 29 × 2
#>    variable type      
#>    <chr>    <chr>     
#>  1 NR_ITW   Text      
#>  2 age      Continuous
#>  3 db030    Continuous
#>  4 db040    Modal     
#>  5 db090    Continuous
#>  6 eqIncome Continuous
#>  7 eqSS     Continuous
#>  8 hsize    Modal     
#>  9 hy040n   Continuous
#> 10 hy050n   Continuous
#> # ℹ 19 more rows
…
